<?xml version="1.0" encoding="UTF-8" standalone="no"?>
<project description="" id="1" linkage="" name="New project 1" version="">
    <graphs>
        <graph description="" id="5" linkage="" name="New directed graph 1" type="ORIENTED_GRAPH" version="">
            <node description="" height="25.0" id="2" name="START" priority="" style="STYLE_START" width="70.0" xpos="28.0" ypos="0.0"/>
            <edge description="" id="11" name="1" priority="" source="2" target="3"/>
            <node description="" height="40.0" id="3" name="A" priority="" style="STYLE_NODE" width="40.0" xpos="43.0" ypos="75.0"/>
            <edge description="" id="12" name="2" priority="" source="3" target="4"/>
            <edge description="" id="15" name="5" priority="" source="3" target="5"/>
            <node description="" height="40.0" id="4" name="B" priority="" style="STYLE_NODE" width="40.0" xpos="20.0" ypos="165.0"/>
            <edge description="" id="13" name="3" priority="" source="4" target="3"/>
            <edge description="" id="14" name="4" priority="" source="4" target="5"/>
            <node description="" height="40.0" id="5" name="C" priority="" style="STYLE_NODE" width="40.0" xpos="45.0" ypos="255.0"/>
            <edge description="" id="16" name="6" priority="" source="5" target="6"/>
            <edge description="" id="20" name="8" priority="" source="5" target="7"/>
            <node description="" height="40.0" id="6" name="D" priority="" style="STYLE_NODE" width="40.0" xpos="20.0" ypos="345.0"/>
            <edge description="" id="19" name="7" priority="" source="6" target="5"/>
            <edge description="" id="23" name="11" priority="" source="6" target="7"/>
            <node description="" height="40.0" id="7" name="E" priority="" style="STYLE_NODE" width="40.0" xpos="40.0" ypos="435.0"/>
            <edge description="" id="21" name="9" priority="" source="7" target="8"/>
            <edge description="" id="25" name="13" priority="" source="7" target="9"/>
            <node description="" height="40.0" id="8" name="F" priority="" style="STYLE_NODE" width="40.0" xpos="0.0" ypos="525.0"/>
            <edge description="" id="22" name="10" priority="" source="8" target="7"/>
            <edge description="" id="24" name="12" priority="" source="8" target="10"/>
            <node description="" height="40.0" id="9" name="G" priority="" style="STYLE_NODE" width="40.0" xpos="70.0" ypos="525.0"/>
            <node description="" height="40.0" id="10" name="H" priority="" style="STYLE_NODE" width="40.0" xpos="0.0" ypos="615.0"/>
            <test_case changed="false" combinations_data_rows="8" graph_id="5" name="Test situations 1, TDL= 1, ALG= PCT." note="" test_situations_data_rows="3">
                <combinations_data_value col="0" selected_row="0">A</combinations_data_value>
                <combinations_data_value col="1" selected_row="0">1
3
</combinations_data_value>
                <combinations_data_value col="0" selected_row="1">E</combinations_data_value>
                <combinations_data_value col="1" selected_row="1">8
11
10
</combinations_data_value>
                <combinations_data_value col="0" selected_row="2">F</combinations_data_value>
                <combinations_data_value col="1" selected_row="2">9
</combinations_data_value>
                <combinations_data_value col="0" selected_row="3">D</combinations_data_value>
                <combinations_data_value col="1" selected_row="3">6
</combinations_data_value>
                <combinations_data_value col="0" selected_row="4">H</combinations_data_value>
                <combinations_data_value col="1" selected_row="4">12
</combinations_data_value>
                <combinations_data_value col="0" selected_row="5">G</combinations_data_value>
                <combinations_data_value col="1" selected_row="5">13
</combinations_data_value>
                <combinations_data_value col="0" selected_row="6">B</combinations_data_value>
                <combinations_data_value col="1" selected_row="6">2
</combinations_data_value>
                <combinations_data_value col="0" selected_row="7">C</combinations_data_value>
                <combinations_data_value col="1" selected_row="7">5
4
7
</combinations_data_value>
                <test_situation_row>
                    <value edge_id="11" name="1"/>
                    <value edge_id="12" name="2"/>
                    <value edge_id="13" name="3"/>
                    <value edge_id="15" name="5"/>
                    <value edge_id="16" name="6"/>
                    <value edge_id="19" name="7"/>
                    <value edge_id="20" name="8"/>
                    <value edge_id="21" name="9"/>
                    <value edge_id="22" name="10"/>
                    <value edge_id="25" name="13"/>
                </test_situation_row>
                <test_situation_row>
                    <value edge_id="11" name="1"/>
                    <value edge_id="12" name="2"/>
                    <value edge_id="14" name="4"/>
                    <value edge_id="16" name="6"/>
                    <value edge_id="23" name="11"/>
                    <value edge_id="21" name="9"/>
                    <value edge_id="22" name="10"/>
                    <value edge_id="25" name="13"/>
                </test_situation_row>
                <test_situation_row>
                    <value edge_id="11" name="1"/>
                    <value edge_id="15" name="5"/>
                    <value edge_id="20" name="8"/>
                    <value edge_id="21" name="9"/>
                    <value edge_id="24" name="12"/>
                </test_situation_row>
            </test_case>
            <test_case changed="false" combinations_data_rows="6" graph_id="5" name="Test situations 2, TDL= 2, ALG= PCT." note="" test_situations_data_rows="6">
                <combinations_data_value col="0" selected_row="0">A</combinations_data_value>
                <combinations_data_value col="1" selected_row="0">1 - 2
1 - 5
3 - 2
3 - 5
</combinations_data_value>
                <combinations_data_value col="0" selected_row="1">E</combinations_data_value>
                <combinations_data_value col="1" selected_row="1">8 - 9
8 - 13
11 - 9
11 - 13
10 - 9
10 - 13
</combinations_data_value>
                <combinations_data_value col="0" selected_row="2">F</combinations_data_value>
                <combinations_data_value col="1" selected_row="2">9 - 10
9 - 12
</combinations_data_value>
                <combinations_data_value col="0" selected_row="3">D</combinations_data_value>
                <combinations_data_value col="1" selected_row="3">6 - 7
6 - 11
</combinations_data_value>
                <combinations_data_value col="0" selected_row="4">B</combinations_data_value>
                <combinations_data_value col="1" selected_row="4">2 - 3
2 - 4
</combinations_data_value>
                <combinations_data_value col="0" selected_row="5">C</combinations_data_value>
                <combinations_data_value col="1" selected_row="5">5 - 6
5 - 8
4 - 6
4 - 8
7 - 6
7 - 8
</combinations_data_value>
                <test_situation_row>
                    <value edge_id="11" name="1"/>
                    <value edge_id="12" name="2"/>
                    <value edge_id="13" name="3"/>
                    <value edge_id="12" name="2"/>
                    <value edge_id="14" name="4"/>
                    <value edge_id="16" name="6"/>
                    <value edge_id="19" name="7"/>
                    <value edge_id="16" name="6"/>
                    <value edge_id="23" name="11"/>
                    <value edge_id="21" name="9"/>
                    <value edge_id="22" name="10"/>
                    <value edge_id="21" name="9"/>
                    <value edge_id="22" name="10"/>
                    <value edge_id="25" name="13"/>
                </test_situation_row>
                <test_situation_row>
                    <value edge_id="11" name="1"/>
                    <value edge_id="15" name="5"/>
                    <value edge_id="16" name="6"/>
                    <value edge_id="19" name="7"/>
                    <value edge_id="20" name="8"/>
                    <value edge_id="21" name="9"/>
                    <value edge_id="22" name="10"/>
                    <value edge_id="21" name="9"/>
                    <value edge_id="22" name="10"/>
                    <value edge_id="25" name="13"/>
                </test_situation_row>
                <test_situation_row>
                    <value edge_id="11" name="1"/>
                    <value edge_id="12" name="2"/>
                    <value edge_id="13" name="3"/>
                    <value edge_id="15" name="5"/>
                    <value edge_id="20" name="8"/>
                    <value edge_id="25" name="13"/>
                </test_situation_row>
                <test_situation_row>
                    <value edge_id="11" name="1"/>
                    <value edge_id="12" name="2"/>
                    <value edge_id="14" name="4"/>
                    <value edge_id="20" name="8"/>
                    <value edge_id="21" name="9"/>
                    <value edge_id="22" name="10"/>
                    <value edge_id="21" name="9"/>
                    <value edge_id="22" name="10"/>
                    <value edge_id="25" name="13"/>
                </test_situation_row>
                <test_situation_row>
                    <value edge_id="11" name="1"/>
                    <value edge_id="15" name="5"/>
                    <value edge_id="16" name="6"/>
                    <value edge_id="23" name="11"/>
                    <value edge_id="25" name="13"/>
                </test_situation_row>
                <test_situation_row>
                    <value edge_id="11" name="1"/>
                    <value edge_id="15" name="5"/>
                    <value edge_id="20" name="8"/>
                    <value edge_id="21" name="9"/>
                    <value edge_id="24" name="12"/>
                </test_situation_row>
            </test_case>
            <test_case changed="false" combinations_data_rows="6" graph_id="5" name="Test situations 3, TDL= 3, ALG= PCT." note="" test_situations_data_rows="12">
                <combinations_data_value col="0" selected_row="0">A</combinations_data_value>
                <combinations_data_value col="1" selected_row="0">1 - 2 - 3
1 - 2 - 4
1 - 5 - 6
1 - 5 - 8
3 - 2 - 3
3 - 2 - 4
3 - 5 - 6
3 - 5 - 8
</combinations_data_value>
                <combinations_data_value col="0" selected_row="1">E</combinations_data_value>
                <combinations_data_value col="1" selected_row="1">8 - 9 - 10
8 - 9 - 12
11 - 9 - 10
11 - 9 - 12
10 - 9 - 10
10 - 9 - 12
</combinations_data_value>
                <combinations_data_value col="0" selected_row="2">F</combinations_data_value>
                <combinations_data_value col="1" selected_row="2">9 - 10 - 9
9 - 10 - 13
</combinations_data_value>
                <combinations_data_value col="0" selected_row="3">D</combinations_data_value>
                <combinations_data_value col="1" selected_row="3">6 - 7 - 6
6 - 7 - 8
6 - 11 - 9
6 - 11 - 13
</combinations_data_value>
                <combinations_data_value col="0" selected_row="4">B</combinations_data_value>
                <combinations_data_value col="1" selected_row="4">2 - 3 - 2
2 - 3 - 5
2 - 4 - 6
2 - 4 - 8
</combinations_data_value>
                <combinations_data_value col="0" selected_row="5">C</combinations_data_value>
                <combinations_data_value col="1" selected_row="5">5 - 6 - 7
5 - 6 - 11
5 - 8 - 9
5 - 8 - 13
4 - 6 - 7
4 - 6 - 11
4 - 8 - 9
4 - 8 - 13
7 - 6 - 7
7 - 6 - 11
7 - 8 - 9
7 - 8 - 13
</combinations_data_value>
                <test_situation_row>
                    <value edge_id="11" name="1"/>
                    <value edge_id="12" name="2"/>
                    <value edge_id="13" name="3"/>
                    <value edge_id="12" name="2"/>
                    <value edge_id="13" name="3"/>
                    <value edge_id="15" name="5"/>
                    <value edge_id="16" name="6"/>
                    <value edge_id="19" name="7"/>
                    <value edge_id="16" name="6"/>
                    <value edge_id="19" name="7"/>
                    <value edge_id="20" name="8"/>
                    <value edge_id="21" name="9"/>
                    <value edge_id="22" name="10"/>
                    <value edge_id="21" name="9"/>
                    <value edge_id="22" name="10"/>
                    <value edge_id="25" name="13"/>
                </test_situation_row>
                <test_situation_row>
                    <value edge_id="11" name="1"/>
                    <value edge_id="12" name="2"/>
                    <value edge_id="14" name="4"/>
                    <value edge_id="16" name="6"/>
                    <value edge_id="19" name="7"/>
                    <value edge_id="16" name="6"/>
                    <value edge_id="23" name="11"/>
                    <value edge_id="21" name="9"/>
                    <value edge_id="22" name="10"/>
                    <value edge_id="21" name="9"/>
                    <value edge_id="22" name="10"/>
                    <value edge_id="25" name="13"/>
                </test_situation_row>
                <test_situation_row>
                    <value edge_id="11" name="1"/>
                    <value edge_id="15" name="5"/>
                    <value edge_id="16" name="6"/>
                    <value edge_id="23" name="11"/>
                    <value edge_id="25" name="13"/>
                </test_situation_row>
                <test_situation_row>
                    <value edge_id="11" name="1"/>
                    <value edge_id="15" name="5"/>
                    <value edge_id="20" name="8"/>
                    <value edge_id="21" name="9"/>
                    <value edge_id="22" name="10"/>
                    <value edge_id="21" name="9"/>
                    <value edge_id="22" name="10"/>
                    <value edge_id="25" name="13"/>
                </test_situation_row>
                <test_situation_row>
                    <value edge_id="11" name="1"/>
                    <value edge_id="12" name="2"/>
                    <value edge_id="13" name="3"/>
                    <value edge_id="12" name="2"/>
                    <value edge_id="14" name="4"/>
                    <value edge_id="20" name="8"/>
                    <value edge_id="21" name="9"/>
                    <value edge_id="22" name="10"/>
                    <value edge_id="21" name="9"/>
                    <value edge_id="22" name="10"/>
                    <value edge_id="25" name="13"/>
                </test_situation_row>
                <test_situation_row>
                    <value edge_id="11" name="1"/>
                    <value edge_id="12" name="2"/>
                    <value edge_id="13" name="3"/>
                    <value edge_id="15" name="5"/>
                    <value edge_id="20" name="8"/>
                    <value edge_id="25" name="13"/>
                </test_situation_row>
                <test_situation_row>
                    <value edge_id="11" name="1"/>
                    <value edge_id="12" name="2"/>
                    <value edge_id="14" name="4"/>
                    <value edge_id="16" name="6"/>
                    <value edge_id="23" name="11"/>
                    <value edge_id="21" name="9"/>
                    <value edge_id="22" name="10"/>
                    <value edge_id="21" name="9"/>
                    <value edge_id="22" name="10"/>
                    <value edge_id="25" name="13"/>
                </test_situation_row>
                <test_situation_row>
                    <value edge_id="11" name="1"/>
                    <value edge_id="12" name="2"/>
                    <value edge_id="14" name="4"/>
                    <value edge_id="20" name="8"/>
                    <value edge_id="25" name="13"/>
                </test_situation_row>
                <test_situation_row>
                    <value edge_id="11" name="1"/>
                    <value edge_id="15" name="5"/>
                    <value edge_id="16" name="6"/>
                    <value edge_id="19" name="7"/>
                    <value edge_id="20" name="8"/>
                    <value edge_id="25" name="13"/>
                </test_situation_row>
                <test_situation_row>
                    <value edge_id="11" name="1"/>
                    <value edge_id="15" name="5"/>
                    <value edge_id="20" name="8"/>
                    <value edge_id="21" name="9"/>
                    <value edge_id="24" name="12"/>
                </test_situation_row>
                <test_situation_row>
                    <value edge_id="11" name="1"/>
                    <value edge_id="15" name="5"/>
                    <value edge_id="16" name="6"/>
                    <value edge_id="23" name="11"/>
                    <value edge_id="21" name="9"/>
                    <value edge_id="24" name="12"/>
                </test_situation_row>
                <test_situation_row>
                    <value edge_id="11" name="1"/>
                    <value edge_id="15" name="5"/>
                    <value edge_id="20" name="8"/>
                    <value edge_id="21" name="9"/>
                    <value edge_id="22" name="10"/>
                    <value edge_id="21" name="9"/>
                    <value edge_id="24" name="12"/>
                </test_situation_row>
            </test_case>
        </graph>
    </graphs>
    <crud linkage="" version="">
        <description/>
        <entities>
            <entity entity_id="E0">
                <name>E1</name>
                <description/>
                <attributes/>
            </entity>
            <entity entity_id="E1">
                <name>E2</name>
                <description/>
                <attributes/>
            </entity>
            <entity entity_id="E2">
                <name>E3</name>
                <description/>
                <attributes/>
            </entity>
        </entities>
        <functions>
            <function function_id="F0">
                <name>F1</name>
                <description/>
            </function>
            <function function_id="F1">
                <name>F2</name>
                <description/>
            </function>
            <function function_id="F2">
                <name>F3</name>
                <description/>
            </function>
        </functions>
        <actions>
            <action entity_id_ref="E0" function_id_ref="F0">
                <create imns="false" is_set="true">
                    <touched_attributes/>
                </create>
                <read imns="false" is_set="true">
                    <touched_attributes/>
                </read>
                <update imns="false" is_set="true">
                    <touched_attributes/>
                </update>
                <delete imns="true" is_set="false">
                    <touched_attributes/>
                </delete>
                <best_read imns="true" is_set="false"/>
                <influences>
                    <influence entity_id_ref="E1" imns="false" is_set="false"/>
                    <influence entity_id_ref="E2" imns="false" is_set="false"/>
                </influences>
            </action>
            <action entity_id_ref="E1" function_id_ref="F0">
                <create imns="false" is_set="false">
                    <touched_attributes/>
                </create>
                <read imns="false" is_set="true">
                    <touched_attributes/>
                </read>
                <update imns="false" is_set="false">
                    <touched_attributes/>
                </update>
                <delete imns="false" is_set="false">
                    <touched_attributes/>
                </delete>
                <best_read imns="false" is_set="false"/>
                <influences>
                    <influence entity_id_ref="E0" imns="false" is_set="false"/>
                    <influence entity_id_ref="E2" imns="false" is_set="false"/>
                </influences>
            </action>
            <action entity_id_ref="E2" function_id_ref="F0">
                <create imns="false" is_set="true">
                    <touched_attributes/>
                </create>
                <read imns="false" is_set="false">
                    <touched_attributes/>
                </read>
                <update imns="false" is_set="false">
                    <touched_attributes/>
                </update>
                <delete imns="false" is_set="false">
                    <touched_attributes/>
                </delete>
                <best_read imns="false" is_set="false"/>
                <influences>
                    <influence entity_id_ref="E0" imns="false" is_set="false"/>
                    <influence entity_id_ref="E1" imns="false" is_set="false"/>
                </influences>
            </action>
            <action entity_id_ref="E0" function_id_ref="F1">
                <create imns="false" is_set="true">
                    <touched_attributes/>
                </create>
                <read imns="false" is_set="true">
                    <touched_attributes/>
                </read>
                <update imns="false" is_set="false">
                    <touched_attributes/>
                </update>
                <delete imns="false" is_set="false">
                    <touched_attributes/>
                </delete>
                <best_read imns="false" is_set="false"/>
                <influences>
                    <influence entity_id_ref="E1" imns="true" is_set="false"/>
                    <influence entity_id_ref="E2" imns="true" is_set="false"/>
                </influences>
            </action>
            <action entity_id_ref="E1" function_id_ref="F1">
                <create imns="false" is_set="true">
                    <touched_attributes/>
                </create>
                <read imns="false" is_set="false">
                    <touched_attributes/>
                </read>
                <update imns="false" is_set="false">
                    <touched_attributes/>
                </update>
                <delete imns="false" is_set="false">
                    <touched_attributes/>
                </delete>
                <best_read imns="false" is_set="false"/>
                <influences>
                    <influence entity_id_ref="E0" imns="false" is_set="false"/>
                    <influence entity_id_ref="E2" imns="false" is_set="false"/>
                </influences>
            </action>
            <action entity_id_ref="E2" function_id_ref="F1">
                <create imns="false" is_set="false">
                    <touched_attributes/>
                </create>
                <read imns="false" is_set="false">
                    <touched_attributes/>
                </read>
                <update imns="false" is_set="false">
                    <touched_attributes/>
                </update>
                <delete imns="false" is_set="true">
                    <touched_attributes/>
                </delete>
                <best_read imns="false" is_set="false"/>
                <influences>
                    <influence entity_id_ref="E0" imns="false" is_set="false"/>
                    <influence entity_id_ref="E1" imns="false" is_set="false"/>
                </influences>
            </action>
            <action entity_id_ref="E0" function_id_ref="F2">
                <create imns="false" is_set="false">
                    <touched_attributes/>
                </create>
                <read imns="false" is_set="true">
                    <touched_attributes/>
                </read>
                <update imns="false" is_set="false">
                    <touched_attributes/>
                </update>
                <delete imns="false" is_set="false">
                    <touched_attributes/>
                </delete>
                <best_read imns="false" is_set="false"/>
                <influences>
                    <influence entity_id_ref="E1" imns="false" is_set="false"/>
                    <influence entity_id_ref="E2" imns="false" is_set="false"/>
                </influences>
            </action>
            <action entity_id_ref="E1" function_id_ref="F2">
                <create imns="false" is_set="false">
                    <touched_attributes/>
                </create>
                <read imns="false" is_set="false">
                    <touched_attributes/>
                </read>
                <update imns="false" is_set="true">
                    <touched_attributes/>
                </update>
                <delete imns="false" is_set="false">
                    <touched_attributes/>
                </delete>
                <best_read imns="false" is_set="false"/>
                <influences>
                    <influence entity_id_ref="E0" imns="false" is_set="false"/>
                    <influence entity_id_ref="E2" imns="false" is_set="false"/>
                </influences>
            </action>
            <action entity_id_ref="E2" function_id_ref="F2">
                <create imns="false" is_set="true">
                    <touched_attributes/>
                </create>
                <read imns="false" is_set="false">
                    <touched_attributes/>
                </read>
                <update imns="false" is_set="false">
                    <touched_attributes/>
                </update>
                <delete imns="false" is_set="false">
                    <touched_attributes/>
                </delete>
                <best_read imns="false" is_set="false"/>
                <influences>
                    <influence entity_id_ref="E0" imns="false" is_set="false"/>
                    <influence entity_id_ref="E1" imns="false" is_set="false"/>
                </influences>
            </action>
        </actions>
        <test_cases/>
    </crud>
</project>
